{
  "connection": "default",
  "collectionName": "forecasts",
  "info": {
    "name": "Forecasts"
  },
  "options": {
    "increments": true,
    "timestamps": true
  },
  "attributes": {
    "Time": {
      "type": "datetime"
    },
    "location": {
      "model": "locations",
      "via": "forecasts"
    },
    "Source": {
      "type": "enumeration",
      "enum": [
        "openweathermap",
        "here",
        "zhms",
        "darksky"
      ],
      "required": true
    },
    "MeteoData": {
      "type": "component",
      "repeatable": true,
      "component": "meteo-data.meteo-data"
    },
    "Accuracy": {
      "type": "component",
      "repeatable": false,
      "component": "accuracy-data.accuracy"
    }
  }
}
