{
  "defaultConnection": "default",
  "connections": {
    "default": {
      "connector": "bookshelf",
      "settings": {
        "client": "mysql",
        "database": "magistarski",
        "host": "127.0.0.1",
        "port": 3306,
        "username": "master",
        "password": "faxkxfp207"
      },
      "options": {}
    }
  }
}
